{ 
    "leather":"Leather straps come in a variety of styles, and the range of quality and finishing is substantial. The cost of a leather strap depends on the quality and exclusivity of the leather, as well as the brand and the strap maker.", 
    "steel" : "Stainless steel watch straps are extremely durable and can last the lifetime of a watch if properly maintained. We offer free watch adjustments in our Fossil Retail and Outlet Stores—click here to find the one nearest to you! ",
    "mesh" : "High Quality Stainless Steel Milanese Mesh Watch Strap, this is our best selling stainless steel watch strap. ",
    "nylon" : "Sport Nylon Watchband Canvas Watch bands Waterproof 4 Sizes Popular Pin Buckle ",
    "bumber":"Thick Genuine Watch Strap (for Big Sport Watches) Material: Calf leather / top layer / Crazy Horse Hardware: SS304 Stainless steel buckle, could be high gloss, matt finish , PVD ... ",
    "silicon":"Features: LED Noctilucent Stopwatch - Mostly found in digital watches; it is designed to measure the amount of time elapsed from a particular time when the device is activated to when the device is deactivated., Water Resistant / Water Proof - Can withstand the effects of water down to specific depths. The water resistance level is often marked on the dial or the case back., Chronograph - Driven by push start, stop and reset, which allows the watch to accurately measure elapsed time and conventional time., Calendar / date / day - Popular feature in analog and digital watches dial face; displays the day of the week and date in a given month."
}